wave.vcd
$date
	Sun Feb 27 11:51:38 2022
$end
$version
	Icarus Verilog
$end
$timescale
	1ps
$end
$scope module openmips_min_sopc_tb $end
$var reg 1 ! CLOCK_50 $end
$var reg 1 " rst $end
$scope module openmips_min_sopc0 $end
$var wire 1 ! clk $end
$var wire 1 " rst $end
$var wire 1 # rom_ce $end
$var wire 32 $ inst_addr [31:0] $end
$var wire 32 % inst [31:0] $end
$scope module inst_rom0 $end
$var wire 32 & inst [31:0] $end
$var wire 1 # ce $end
$var wire 32 ' addr [31:0] $end
$upscope $end
$scope module openmips0 $end
$var wire 1 ! clk $end
$var wire 32 ( rom_addr_o [31:0] $end
$var wire 32 ) rom_data_i [31:0] $end
$var wire 1 " rst $end
$var wire 1 * wb_wreg_i $end
$var wire 32 + wb_wdata_i [31:0] $end
$var wire 5 , wb_waddr_i [4:0] $end
$var wire 1 # rom_ce_o $end
$var wire 1 - reg2_read $end
$var wire 32 . reg2_data [31:0] $end
$var wire 5 / reg2_addr [4:0] $end
$var wire 1 0 reg1_read $end
$var wire 32 1 reg1_data [31:0] $end
$var wire 5 2 reg1_addr [4:0] $end
$var wire 32 3 pc [31:0] $end
$var wire 1 4 mem_wreg_o $end
$var wire 1 5 mem_wreg_i $end
$var wire 32 6 mem_wdata_o [31:0] $end
$var wire 32 7 mem_wdata_i [31:0] $end
$var wire 5 8 mem_waddr_o [4:0] $end
$var wire 5 9 mem_waddr_i [4:0] $end
$var wire 1 : id_wreg_o $end
$var wire 5 ; id_waddr_o [4:0] $end
$var wire 32 < id_reg2_o [31:0] $end
$var wire 32 = id_reg1_o [31:0] $end
$var wire 32 > id_pc_i [31:0] $end
$var wire 32 ? id_inst_i [31:0] $end
$var wire 3 @ id_alusel_o [2:0] $end
$var wire 8 A id_aluop_o [7:0] $end
$var wire 1 B ex_wreg_o $end
$var wire 1 C ex_wreg_i $end
$var wire 32 D ex_wdata_o [31:0] $end
$var wire 5 E ex_waddr_o [4:0] $end
$var wire 5 F ex_waddr_i [4:0] $end
$var wire 32 G ex_reg2_i [31:0] $end
$var wire 32 H ex_reg1_i [31:0] $end
$var wire 3 I ex_alusel_i [2:0] $end
$var wire 8 J ex_aluop_i [7:0] $end
$scope module ex0 $end
$var wire 1 " rst $end
$var wire 1 C wreg_i $end
$var wire 5 K waddr_i [4:0] $end
$var wire 32 L reg2_data_i [31:0] $end
$var wire 32 M reg1_data_i [31:0] $end
$var wire 3 N alusel_i [2:0] $end
$var wire 8 O aluop_i [7:0] $end
$var reg 32 P logicout [31:0] $end
$var reg 5 Q waddr_o [4:0] $end
$var reg 32 R wdata_o [31:0] $end
$var reg 1 B wreg_o $end
$upscope $end
$scope module ex_mem0 $end
$var wire 1 ! clk $end
$var wire 5 S ex_waddr [4:0] $end
$var wire 32 T ex_wdata [31:0] $end
$var wire 1 B ex_wreg $end
$var wire 1 " rst $end
$var reg 5 U mem_waddr [4:0] $end
$var reg 32 V mem_wdata [31:0] $end
$var reg 1 5 mem_wreg $end
$upscope $end
$scope module id0 $end
$var wire 5 W ex_waddr_i [4:0] $end
$var wire 32 X ex_wdata_i [31:0] $end
$var wire 1 Y ex_wreg_i $end
$var wire 5 Z mem_waddr_i [4:0] $end
$var wire 32 [ mem_wdata_i [31:0] $end
$var wire 1 \ mem_wreg_i $end
$var wire 1 " rst $end
$var wire 32 ] reg2_data_i [31:0] $end
$var wire 32 ^ reg1_data_i [31:0] $end
$var wire 32 _ pc_i [31:0] $end
$var wire 5 ` op_sa [4:0] $end
$var wire 5 a op_rt [4:0] $end
$var wire 5 b op_rs [4:0] $end
$var wire 5 c op_rd [4:0] $end
$var wire 6 d op_opcode [5:0] $end
$var wire 26 e op_instr_index [25:0] $end
$var wire 16 f op_immediate [15:0] $end
$var wire 6 g op_function [5:0] $end
$var wire 32 h inst_i [31:0] $end
$var reg 8 i aluop_o [7:0] $end
$var reg 3 j alusel_o [2:0] $end
$var reg 32 k imm [31:0] $end
$var reg 1 l inst_valid $end
$var reg 5 m reg1_addr_o [4:0] $end
$var reg 32 n reg1_data_o [31:0] $end
$var reg 1 0 reg1_read_o $end
$var reg 5 o reg2_addr_o [4:0] $end
$var reg 32 p reg2_data_o [31:0] $end
$var reg 1 - reg2_read_o $end
$var reg 5 q waddr_o [4:0] $end
$var reg 1 : wreg_o $end
$upscope $end
$scope module id_ex0 $end
$var wire 1 ! clk $end
$var wire 8 r id_aluop [7:0] $end
$var wire 3 s id_alusel [2:0] $end
$var wire 32 t id_reg1_data [31:0] $end
$var wire 32 u id_reg2_data [31:0] $end
$var wire 5 v id_waddr [4:0] $end
$var wire 1 : id_wreg $end
$var wire 1 " rst $end
$var reg 8 w ex_aluop [7:0] $end
$var reg 3 x ex_alusel [2:0] $end
$var reg 32 y ex_reg1_data [31:0] $end
$var reg 32 z ex_reg2_data [31:0] $end
$var reg 5 { ex_waddr [4:0] $end
$var reg 1 C ex_wreg $end
$upscope $end
$scope module if_id0 $end
$var wire 1 ! clk $end
$var wire 32 | if_inst [31:0] $end
$var wire 1 " rst $end
$var wire 32 } if_pc [31:0] $end
$var reg 32 ~ id_inst [31:0] $end
$var reg 32 !" id_pc [31:0] $end
$upscope $end
$scope module mem0 $end
$var wire 1 " rst $end
$var wire 5 "" waddr_i [4:0] $end
$var wire 32 #" wdata_i [31:0] $end
$var wire 1 5 wreg_i $end
$var reg 5 $" waddr_o [4:0] $end
$var reg 32 %" wdata_o [31:0] $end
$var reg 1 4 wreg_o $end
$upscope $end
$scope module mem_wb0 $end
$var wire 1 ! clk $end
$var wire 5 &" mem_waddr [4:0] $end
$var wire 32 '" mem_wdata [31:0] $end
$var wire 1 4 mem_wreg $end
$var wire 1 " rst $end
$var reg 5 (" wb_waddr [4:0] $end
$var reg 32 )" wb_wdata [31:0] $end
$var reg 1 * wb_wreg $end
$upscope $end
$scope module pc_reg0 $end
$var wire 1 ! clk $end
$var wire 1 " rst $end
$var reg 1 # ce $end
$var reg 32 *" pc [31:0] $end
$upscope $end
$scope module regfile1 $end
$var wire 1 ! clk $end
$var wire 5 +" raddr1 [4:0] $end
$var wire 5 ," raddr2 [4:0] $end
$var wire 1 0 re1 $end
$var wire 1 - re2 $end
$var wire 1 " rst $end
$var wire 5 -" waddr [4:0] $end
$var wire 32 ." wdata [31:0] $end
$var wire 1 * we $end
$var reg 32 /" rdata1 [31:0] $end
$var reg 32 0" rdata2 [31:0] $end
$upscope $end
$upscope $end
$upscope $end
$upscope $end
$enddefinitions $end
#0
$dumpvars
b0 0"
b0 /"
bx ."
bx -"
b0 ,"
b0 +"
bx *"
bx )"
bx ("
b0 '"
b0 &"
b0 %"
b0 $"
bx #"
bx ""
bx !"
bx ~
bx }
bx |
bx {
bx z
bx y
bx x
bx w
b0 v
b0 u
b0 t
b0 s
b0 r
b0 q
b0 p
b0 o
b0 n
b0 m
0l
b0 k
b0 j
b0 i
bx h
bx g
bx f
bx e
bx d
bx c
bx b
bx a
bx `
bx _
b0 ^
b0 ]
z\
bz [
bz Z
zY
bz X
bz W
bx V
bx U
b0 T
bx S
b0 R
bx Q
b0 P
bx O
bx N
bx M
bx L
bx K
bx J
bx I
bx H
bx G
bx F
bx E
b0 D
xC
xB
b0 A
b0 @
bx ?
bx >
b0 =
b0 <
b0 ;
0:
bx 9
b0 8
bx 7
b0 6
x5
04
bx 3
b0 2
b0 1
00
b0 /
b0 .
0-
bx ,
bx +
x*
bx )
bx (
bx '
bx &
bx %
bx $
x#
1"
0!
$end
#10000
0B
b0 E
b0 Q
b0 S
b0 %
b0 &
b0 )
b0 |
b0 g
b0 `
b0 c
b0 e
b0 f
b0 a
b0 b
b0 d
0#
b0 ?
b0 h
b0 ~
b0 >
b0 _
b0 !"
0C
b0 F
b0 K
b0 {
b0 G
b0 L
b0 z
b0 H
b0 M
b0 y
b0 J
b0 O
b0 w
b0 I
b0 N
b0 x
b0 7
b0 V
b0 #"
05
b0 9
b0 U
b0 ""
b0 +
b0 )"
b0 ."
0*
b0 ,
b0 ("
b0 -"
1!
#20000
0!
#30000
b0 $
b0 '
b0 (
b0 3
b0 }
b0 *"
1!
#40000
0!
#50000
1!
#60000
0!
#70000
1!
#80000
0!
#90000
1!
#100000
0!
#110000
1!
#120000
0!
#130000
1!
#140000
0!
#150000
1!
#160000
0!
#170000
1!
#180000
0!
#190000
1!
#195000
1l
0"
#200000
0!
#210000
b110100000000010001000100000000 %
b110100000000010001000100000000 &
b110100000000010001000100000000 )
b110100000000010001000100000000 |
1#
1!
#220000
0!
#230000
b1000100000000 <
b1000100000000 p
b1000100000000 u
bx .
bx ]
bx 0"
b1000100000000 k
10
0l
1:
b100101 A
b100101 i
b100101 r
b1 @
b1 j
b1 s
b1 /
b1 o
b1 ,"
b1 ;
b1 q
b1 v
b110100000000100000000000100000 %
b110100000000100000000000100000 &
b110100000000100000000000100000 )
b110100000000100000000000100000 |
b100 `
b10 c
b10001000100000000 e
b1000100000000 f
b1 a
b1101 d
b110100000000010001000100000000 ?
b110100000000010001000100000000 h
b110100000000010001000100000000 ~
b100 $
b100 '
b100 (
b100 3
b100 }
b100 *"
1!
#240000
0!
#250000
b100000 <
b100000 p
b100000 u
b1000100000000 D
b1000100000000 R
b1000100000000 T
b100000 k
b10 /
b10 o
b10 ,"
10
0l
1:
b10 ;
b10 q
b10 v
b100101 A
b100101 i
b100101 r
b1 @
b1 j
b1 s
b1000100000000 P
1B
b1 E
b1 Q
b1 S
b110100000000111111111100000000 %
b110100000000111111111100000000 &
b110100000000111111111100000000 )
b110100000000111111111100000000 |
b100000 g
b0 `
b0 c
b100000000000100000 e
b100000 f
b10 a
b1000 $
b1000 '
b1000 (
b1000 3
b1000 }
b1000 *"
b110100000000100000000000100000 ?
b110100000000100000000000100000 h
b110100000000100000000000100000 ~
b100 >
b100 _
b100 !"
1C
b1 F
b1 K
b1 {
b1000100000000 G
b1000100000000 L
b1000100000000 z
b100101 J
b100101 O
b100101 w
b1 I
b1 N
b1 x
1!
#260000
0!
#270000
b1111111100000000 <
b1111111100000000 p
b1111111100000000 u
b100000 D
b100000 R
b100000 T
b1111111100000000 k
b11 /
b11 o
b11 ,"
10
0l
1:
b11 ;
b11 q
b11 v
b100101 A
b100101 i
b100101 r
b1 @
b1 j
b1 s
b1000100000000 6
b1000100000000 %"
b1000100000000 '"
14
b1 8
b1 $"
b1 &"
b10 E
b10 Q
b10 S
b100000 P
b110100000001001111111111111111 %
b110100000001001111111111111111 &
b110100000001001111111111111111 )
b110100000001001111111111111111 |
b0 g
b11100 `
b11111 c
b111111111100000000 e
b1111111100000000 f
b11 a
b1000100000000 7
b1000100000000 V
b1000100000000 #"
15
b1 9
b1 U
b1 ""
b10 F
b10 K
b10 {
b100000 G
b100000 L
b100000 z
b110100000000111111111100000000 ?
b110100000000111111111100000000 h
b110100000000111111111100000000 ~
b1000 >
b1000 _
b1000 !"
b1100 $
b1100 '
b1100 (
b1100 3
b1100 }
b1100 *"
1!
#280000
0!
#290000
b1111111111111111 <
b1111111111111111 p
b1111111111111111 u
b1111111100000000 D
b1111111100000000 R
b1111111100000000 T
b1111111111111111 k
b100 /
b100 o
b100 ,"
10
0l
1:
b100 ;
b100 q
b100 v
b100101 A
b100101 i
b100101 r
b1 @
b1 j
b1 s
b11 E
b11 Q
b11 S
b1111111100000000 P
b100000 6
b100000 %"
b100000 '"
b10 8
b10 $"
b10 &"
b11110 %
b11110 &
b11110 )
b11110 |
b111111 g
b11111 `
b1001111111111111111 e
b1111111111111111 f
b100 a
b10000 $
b10000 '
b10000 (
b10000 3
b10000 }
b10000 *"
b110100000001001111111111111111 ?
b110100000001001111111111111111 h
b110100000001001111111111111111 ~
b1100 >
b1100 _
b1100 !"
b11 F
b11 K
b11 {
b1111111100000000 G
b1111111100000000 L
b1111111100000000 z
b100000 7
b100000 V
b100000 #"
b10 9
b10 U
b10 ""
b1000100000000 +
b1000100000000 )"
b1000100000000 ."
1*
b1 ,
b1 ("
b1 -"
1!
#300000
0!
#310000
b0 <
b0 p
b0 u
b0 .
b0 ]
b0 0"
b1111111111111111 D
b1111111111111111 R
b1111111111111111 T
b0 k
b0 /
b0 o
b0 ,"
00
1l
0:
b0 ;
b0 q
b0 v
b0 A
b0 i
b0 r
b0 @
b0 j
b0 s
b1111111100000000 6
b1111111100000000 %"
b1111111100000000 '"
b11 8
b11 $"
b11 &"
b100 E
b100 Q
b100 S
b1111111111111111 P
b0 %
b0 &
b0 )
b0 |
b11110 g
b0 `
b0 c
b11110 e
b11110 f
b0 a
b0 d
b100000 +
b100000 )"
b100000 ."
b10 ,
b10 ("
b10 -"
b1111111100000000 7
b1111111100000000 V
b1111111100000000 #"
b11 9
b11 U
b11 ""
b100 F
b100 K
b100 {
b1111111111111111 G
b1111111111111111 L
b1111111111111111 z
b11110 ?
b11110 h
b11110 ~
b10000 >
b10000 _
b10000 !"
b10100 $
b10100 '
b10100 (
b10100 3
b10100 }
b10100 *"
1!
#320000
0!
#330000
b0 P
b0 D
b0 R
b0 T
0B
b0 E
b0 Q
b0 S
b1111111111111111 6
b1111111111111111 %"
b1111111111111111 '"
b100 8
b100 $"
b100 &"
b0 g
b0 e
b0 f
b11000 $
b11000 '
b11000 (
b11000 3
b11000 }
b11000 *"
b0 ?
b0 h
b0 ~
b10100 >
b10100 _
b10100 !"
0C
b0 F
b0 K
b0 {
b0 G
b0 L
b0 z
b0 J
b0 O
b0 w
b0 I
b0 N
b0 x
b1111111111111111 7
b1111111111111111 V
b1111111111111111 #"
b100 9
b100 U
b100 ""
b1111111100000000 +
b1111111100000000 )"
b1111111100000000 ."
b11 ,
b11 ("
b11 -"
1!
#340000
0!
#350000
b0 6
b0 %"
b0 '"
04
b0 8
b0 $"
b0 &"
b1111111111111111 +
b1111111111111111 )"
b1111111111111111 ."
b100 ,
b100 ("
b100 -"
b0 7
b0 V
b0 #"
05
b0 9
b0 U
b0 ""
b11000 >
b11000 _
b11000 !"
b11100 $
b11100 '
b11100 (
b11100 3
b11100 }
b11100 *"
1!
#360000
0!
#370000
b100000 $
b100000 '
b100000 (
b100000 3
b100000 }
b100000 *"
b11100 >
b11100 _
b11100 !"
b0 +
b0 )"
b0 ."
0*
b0 ,
b0 ("
b0 -"
1!
#380000
0!
#390000
b100000 >
b100000 _
b100000 !"
b100100 $
b100100 '
b100100 (
b100100 3
b100100 }
b100100 *"
1!
#400000
0!
#410000
b10000000000001 %
b10000000000001 &
b10000000000001 )
b10000000000001 |
b101000 $
b101000 '
b101000 (
b101000 3
b101000 }
b101000 *"
b100100 >
b100100 _
b100100 !"
1!
#420000
0!
#430000
b100 ;
b100 q
b100 v
b1000000010000000000000001 %
b1000000010000000000000001 &
b1000000010000000000000001 )
b1000000010000000000000001 |
b1 g
b100 c
b10000000000001 e
b10000000000001 f
b10000000000001 ?
b10000000000001 h
b10000000000001 ~
b101000 >
b101000 _
b101000 !"
b101100 $
b101100 '
b101100 (
b101100 3
b101100 }
b101100 *"
1!
#440000
0!
#450000
b1 /
b1 o
b1 ,"
b1000 2
b1000 m
b1000 +"
b0 ;
b0 q
b0 v
b100 E
b100 Q
b100 S
b0 %
b0 &
b0 )
b0 |
b0 c
b1000000010000000000000001 e
b1 f
b1 a
b1000 b
b110000 $
b110000 '
b110000 (
b110000 3
b110000 }
b110000 *"
b1000000010000000000000001 ?
b1000000010000000000000001 h
b1000000010000000000000001 ~
b101100 >
b101100 _
b101100 !"
b100 F
b100 K
b100 {
1!
#460000
0!
#470000
b0 /
b0 o
b0 ,"
b0 2
b0 m
b0 +"
b100 8
b100 $"
b100 &"
b0 E
b0 Q
b0 S
b0 g
b0 e
b0 f
b0 a
b0 b
b100 9
b100 U
b100 ""
b0 F
b0 K
b0 {
b0 ?
b0 h
b0 ~
b110000 >
b110000 _
b110000 !"
b110100 $
b110100 '
b110100 (
b110100 3
b110100 }
b110100 *"
1!
#480000
0!
#490000
b0 8
b0 $"
b0 &"
b1 %
b1 &
b1 )
b1 |
b111000 $
b111000 '
b111000 (
b111000 3
b111000 }
b111000 *"
b110100 >
b110100 _
b110100 !"
b0 9
b0 U
b0 ""
b100 ,
b100 ("
b100 -"
1!
#500000
0!
#510000
b0 %
b0 &
b0 )
b0 |
b1 g
b1 e
b1 f
b0 ,
b0 ("
b0 -"
b1 ?
b1 h
b1 ~
b111000 >
b111000 _
b111000 !"
b111100 $
b111100 '
b111100 (
b111100 3
b111100 }
b111100 *"
1!
#520000
0!
#530000
bx %
bx &
bx )
bx |
b0 g
b0 e
b0 f
b1000000 $
b1000000 '
b1000000 (
b1000000 3
b1000000 }
b1000000 *"
b0 ?
b0 h
b0 ~
b111100 >
b111100 _
b111100 !"
1!
#540000
0!
#550000
bx /
bx o
bx ,"
bx 2
bx m
bx +"
bx ;
bx q
bx v
bx g
bx `
bx c
bx e
bx f
bx a
bx b
bx d
bx ?
bx h
bx ~
b1000000 >
b1000000 _
b1000000 !"
b1000100 $
b1000100 '
b1000100 (
b1000100 3
b1000100 }
b1000100 *"
1!
#560000
0!
#570000
bx E
bx Q
bx S
b1001000 $
b1001000 '
b1001000 (
b1001000 3
b1001000 }
b1001000 *"
b1000100 >
b1000100 _
b1000100 !"
bx F
bx K
bx {
1!
#580000
0!
#590000
bx 8
bx $"
bx &"
bx 9
bx U
bx ""
b1001000 >
b1001000 _
b1001000 !"
b1001100 $
b1001100 '
b1001100 (
b1001100 3
b1001100 }
b1001100 *"
1!
#600000
0!
#610000
b1010000 $
b1010000 '
b1010000 (
b1010000 3
b1010000 }
b1010000 *"
b1001100 >
b1001100 _
b1001100 !"
bx ,
bx ("
bx -"
1!
#620000
0!
#630000
b1010000 >
b1010000 _
b1010000 !"
b1010100 $
b1010100 '
b1010100 (
b1010100 3
b1010100 }
b1010100 *"
1!
#640000
0!
#650000
b1011000 $
b1011000 '
b1011000 (
b1011000 3
b1011000 }
b1011000 *"
b1010100 >
b1010100 _
b1010100 !"
1!
#660000
0!
#670000
b1011000 >
b1011000 _
b1011000 !"
b1011100 $
b1011100 '
b1011100 (
b1011100 3
b1011100 }
b1011100 *"
1!
#680000
0!
#690000
b1100000 $
b1100000 '
b1100000 (
b1100000 3
b1100000 }
b1100000 *"
b1011100 >
b1011100 _
b1011100 !"
1!
#700000
0!
#710000
b1100000 >
b1100000 _
b1100000 !"
b1100100 $
b1100100 '
b1100100 (
b1100100 3
b1100100 }
b1100100 *"
1!
#720000
0!
#730000
b1101000 $
b1101000 '
b1101000 (
b1101000 3
b1101000 }
b1101000 *"
b1100100 >
b1100100 _
b1100100 !"
1!
#740000
0!
#750000
b1101000 >
b1101000 _
b1101000 !"
b1101100 $
b1101100 '
b1101100 (
b1101100 3
b1101100 }
b1101100 *"
1!
#760000
0!
#770000
b1110000 $
b1110000 '
b1110000 (
b1110000 3
b1110000 }
b1110000 *"
b1101100 >
b1101100 _
b1101100 !"
1!
#780000
0!
#790000
b1110000 >
b1110000 _
b1110000 !"
b1110100 $
b1110100 '
b1110100 (
b1110100 3
b1110100 }
b1110100 *"
1!
#800000
0!
#810000
b1111000 $
b1111000 '
b1111000 (
b1111000 3
b1111000 }
b1111000 *"
b1110100 >
b1110100 _
b1110100 !"
1!
#820000
0!
#830000
b1111000 >
b1111000 _
b1111000 !"
b1111100 $
b1111100 '
b1111100 (
b1111100 3
b1111100 }
b1111100 *"
1!
#840000
0!
#850000
b10000000 $
b10000000 '
b10000000 (
b10000000 3
b10000000 }
b10000000 *"
b1111100 >
b1111100 _
b1111100 !"
1!
#860000
0!
#870000
b10000000 >
b10000000 _
b10000000 !"
b10000100 $
b10000100 '
b10000100 (
b10000100 3
b10000100 }
b10000100 *"
1!
#880000
0!
#890000
b10001000 $
b10001000 '
b10001000 (
b10001000 3
b10001000 }
b10001000 *"
b10000100 >
b10000100 _
b10000100 !"
1!
#900000
0!
#910000
b10001000 >
b10001000 _
b10001000 !"
b10001100 $
b10001100 '
b10001100 (
b10001100 3
b10001100 }
b10001100 *"
1!
#920000
0!
#930000
b10010000 $
b10010000 '
b10010000 (
b10010000 3
b10010000 }
b10010000 *"
b10001100 >
b10001100 _
b10001100 !"
1!
#940000
0!
#950000
b10010000 >
b10010000 _
b10010000 !"
b10010100 $
b10010100 '
b10010100 (
b10010100 3
b10010100 }
b10010100 *"
1!
#960000
0!
#970000
b10011000 $
b10011000 '
b10011000 (
b10011000 3
b10011000 }
b10011000 *"
b10010100 >
b10010100 _
b10010100 !"
1!
#980000
0!
#990000
b10011000 >
b10011000 _
b10011000 !"
b10011100 $
b10011100 '
b10011100 (
b10011100 3
b10011100 }
b10011100 *"
1!
#1000000
0!
#1010000
b10100000 $
b10100000 '
b10100000 (
b10100000 3
b10100000 }
b10100000 *"
b10011100 >
b10011100 _
b10011100 !"
1!
#1020000
0!
#1030000
b10100000 >
b10100000 _
b10100000 !"
b10100100 $
b10100100 '
b10100100 (
b10100100 3
b10100100 }
b10100100 *"
1!
#1040000
0!
#1050000
b10101000 $
b10101000 '
b10101000 (
b10101000 3
b10101000 }
b10101000 *"
b10100100 >
b10100100 _
b10100100 !"
1!
#1060000
0!
#1070000
b10101000 >
b10101000 _
b10101000 !"
b10101100 $
b10101100 '
b10101100 (
b10101100 3
b10101100 }
b10101100 *"
1!
#1080000
0!
#1090000
b10110000 $
b10110000 '
b10110000 (
b10110000 3
b10110000 }
b10110000 *"
b10101100 >
b10101100 _
b10101100 !"
1!
#1100000
0!
#1110000
b10110000 >
b10110000 _
b10110000 !"
b10110100 $
b10110100 '
b10110100 (
b10110100 3
b10110100 }
b10110100 *"
1!
#1120000
0!
#1130000
b10111000 $
b10111000 '
b10111000 (
b10111000 3
b10111000 }
b10111000 *"
b10110100 >
b10110100 _
b10110100 !"
1!
#1140000
0!
#1150000
b10111000 >
b10111000 _
b10111000 !"
b10111100 $
b10111100 '
b10111100 (
b10111100 3
b10111100 }
b10111100 *"
1!
#1160000
0!
#1170000
b11000000 $
b11000000 '
b11000000 (
b11000000 3
b11000000 }
b11000000 *"
b10111100 >
b10111100 _
b10111100 !"
1!
#1180000
0!
#1190000
b11000000 >
b11000000 _
b11000000 !"
b11000100 $
b11000100 '
b11000100 (
b11000100 3
b11000100 }
b11000100 *"
1!
#1200000
0!
#1210000
b11001000 $
b11001000 '
b11001000 (
b11001000 3
b11001000 }
b11001000 *"
b11000100 >
b11000100 _
b11000100 !"
1!
#1220000
0!
#1230000
b11001000 >
b11001000 _
b11001000 !"
b11001100 $
b11001100 '
b11001100 (
b11001100 3
b11001100 }
b11001100 *"
1!
#1240000
0!
#1250000
b11010000 $
b11010000 '
b11010000 (
b11010000 3
b11010000 }
b11010000 *"
b11001100 >
b11001100 _
b11001100 !"
1!
#1260000
0!
#1270000
b11010000 >
b11010000 _
b11010000 !"
b11010100 $
b11010100 '
b11010100 (
b11010100 3
b11010100 }
b11010100 *"
1!
#1280000
0!
#1290000
b11011000 $
b11011000 '
b11011000 (
b11011000 3
b11011000 }
b11011000 *"
b11010100 >
b11010100 _
b11010100 !"
1!
#1300000
0!
#1310000
b11011000 >
b11011000 _
b11011000 !"
b11011100 $
b11011100 '
b11011100 (
b11011100 3
b11011100 }
b11011100 *"
1!
#1320000
0!
#1330000
b11100000 $
b11100000 '
b11100000 (
b11100000 3
b11100000 }
b11100000 *"
b11011100 >
b11011100 _
b11011100 !"
1!
#1340000
0!
#1350000
b11100000 >
b11100000 _
b11100000 !"
b11100100 $
b11100100 '
b11100100 (
b11100100 3
b11100100 }
b11100100 *"
1!
#1360000
0!
#1370000
b11101000 $
b11101000 '
b11101000 (
b11101000 3
b11101000 }
b11101000 *"
b11100100 >
b11100100 _
b11100100 !"
1!
#1380000
0!
#1390000
b11101000 >
b11101000 _
b11101000 !"
b11101100 $
b11101100 '
b11101100 (
b11101100 3
b11101100 }
b11101100 *"
1!
#1400000
0!
#1410000
b11110000 $
b11110000 '
b11110000 (
b11110000 3
b11110000 }
b11110000 *"
b11101100 >
b11101100 _
b11101100 !"
1!
#1420000
0!
#1430000
b11110000 >
b11110000 _
b11110000 !"
b11110100 $
b11110100 '
b11110100 (
b11110100 3
b11110100 }
b11110100 *"
1!
#1440000
0!
#1450000
b11111000 $
b11111000 '
b11111000 (
b11111000 3
b11111000 }
b11111000 *"
b11110100 >
b11110100 _
b11110100 !"
1!
#1460000
0!
#1470000
b11111000 >
b11111000 _
b11111000 !"
b11111100 $
b11111100 '
b11111100 (
b11111100 3
b11111100 }
b11111100 *"
1!
#1480000
0!
#1490000
b100000000 $
b100000000 '
b100000000 (
b100000000 3
b100000000 }
b100000000 *"
b11111100 >
b11111100 _
b11111100 !"
1!
#1500000
0!
#1510000
b100000000 >
b100000000 _
b100000000 !"
b100000100 $
b100000100 '
b100000100 (
b100000100 3
b100000100 }
b100000100 *"
1!
#1520000
0!
#1530000
b100001000 $
b100001000 '
b100001000 (
b100001000 3
b100001000 }
b100001000 *"
b100000100 >
b100000100 _
b100000100 !"
1!
#1540000
0!
#1550000
b100001000 >
b100001000 _
b100001000 !"
b100001100 $
b100001100 '
b100001100 (
b100001100 3
b100001100 }
b100001100 *"
1!
#1560000
0!
#1570000
b100010000 $
b100010000 '
b100010000 (
b100010000 3
b100010000 }
b100010000 *"
b100001100 >
b100001100 _
b100001100 !"
1!
#1580000
0!
#1590000
b100010000 >
b100010000 _
b100010000 !"
b100010100 $
b100010100 '
b100010100 (
b100010100 3
b100010100 }
b100010100 *"
1!
#1600000
0!
#1610000
b100011000 $
b100011000 '
b100011000 (
b100011000 3
b100011000 }
b100011000 *"
b100010100 >
b100010100 _
b100010100 !"
1!
#1620000
0!
#1630000
b100011000 >
b100011000 _
b100011000 !"
b100011100 $
b100011100 '
b100011100 (
b100011100 3
b100011100 }
b100011100 *"
1!
#1640000
0!
#1650000
b100100000 $
b100100000 '
b100100000 (
b100100000 3
b100100000 }
b100100000 *"
b100011100 >
b100011100 _
b100011100 !"
1!
#1660000
0!
#1670000
b100100000 >
b100100000 _
b100100000 !"
b100100100 $
b100100100 '
b100100100 (
b100100100 3
b100100100 }
b100100100 *"
1!
#1680000
0!
#1690000
b100101000 $
b100101000 '
b100101000 (
b100101000 3
b100101000 }
b100101000 *"
b100100100 >
b100100100 _
b100100100 !"
1!
#1700000
0!
#1710000
b100101000 >
b100101000 _
b100101000 !"
b100101100 $
b100101100 '
b100101100 (
b100101100 3
b100101100 }
b100101100 *"
1!
#1720000
0!
#1730000
b100110000 $
b100110000 '
b100110000 (
b100110000 3
b100110000 }
b100110000 *"
b100101100 >
b100101100 _
b100101100 !"
1!
#1740000
0!
#1750000
b100110000 >
b100110000 _
b100110000 !"
b100110100 $
b100110100 '
b100110100 (
b100110100 3
b100110100 }
b100110100 *"
1!
#1760000
0!
#1770000
b100111000 $
b100111000 '
b100111000 (
b100111000 3
b100111000 }
b100111000 *"
b100110100 >
b100110100 _
b100110100 !"
1!
#1780000
0!
#1790000
b100111000 >
b100111000 _
b100111000 !"
b100111100 $
b100111100 '
b100111100 (
b100111100 3
b100111100 }
b100111100 *"
1!
#1800000
0!
#1810000
b101000000 $
b101000000 '
b101000000 (
b101000000 3
b101000000 }
b101000000 *"
b100111100 >
b100111100 _
b100111100 !"
1!
#1820000
0!
#1830000
b101000000 >
b101000000 _
b101000000 !"
b101000100 $
b101000100 '
b101000100 (
b101000100 3
b101000100 }
b101000100 *"
1!
#1840000
0!
#1850000
b101001000 $
b101001000 '
b101001000 (
b101001000 3
b101001000 }
b101001000 *"
b101000100 >
b101000100 _
b101000100 !"
1!
#1860000
0!
#1870000
b101001000 >
b101001000 _
b101001000 !"
b101001100 $
b101001100 '
b101001100 (
b101001100 3
b101001100 }
b101001100 *"
1!
#1880000
0!
#1890000
b101010000 $
b101010000 '
b101010000 (
b101010000 3
b101010000 }
b101010000 *"
b101001100 >
b101001100 _
b101001100 !"
1!
#1900000
0!
#1910000
b101010000 >
b101010000 _
b101010000 !"
b101010100 $
b101010100 '
b101010100 (
b101010100 3
b101010100 }
b101010100 *"
1!
#1920000
0!
#1930000
b101011000 $
b101011000 '
b101011000 (
b101011000 3
b101011000 }
b101011000 *"
b101010100 >
b101010100 _
b101010100 !"
1!
#1940000
0!
#1950000
b101011000 >
b101011000 _
b101011000 !"
b101011100 $
b101011100 '
b101011100 (
b101011100 3
b101011100 }
b101011100 *"
1!
#1960000
0!
#1970000
b101100000 $
b101100000 '
b101100000 (
b101100000 3
b101100000 }
b101100000 *"
b101011100 >
b101011100 _
b101011100 !"
1!
#1980000
0!
#1990000
b101100000 >
b101100000 _
b101100000 !"
b101100100 $
b101100100 '
b101100100 (
b101100100 3
b101100100 }
b101100100 *"
1!
#2000000
0!
#2010000
b101101000 $
b101101000 '
b101101000 (
b101101000 3
b101101000 }
b101101000 *"
b101100100 >
b101100100 _
b101100100 !"
1!
#2020000
0!
#2030000
b101101000 >
b101101000 _
b101101000 !"
b101101100 $
b101101100 '
b101101100 (
b101101100 3
b101101100 }
b101101100 *"
1!
#2040000
0!
#2050000
b101110000 $
b101110000 '
b101110000 (
b101110000 3
b101110000 }
b101110000 *"
b101101100 >
b101101100 _
b101101100 !"
1!
#2060000
0!
#2070000
b101110000 >
b101110000 _
b101110000 !"
b101110100 $
b101110100 '
b101110100 (
b101110100 3
b101110100 }
b101110100 *"
1!
#2080000
0!
#2090000
b101111000 $
b101111000 '
b101111000 (
b101111000 3
b101111000 }
b101111000 *"
b101110100 >
b101110100 _
b101110100 !"
1!
#2100000
0!
#2110000
b101111000 >
b101111000 _
b101111000 !"
b101111100 $
b101111100 '
b101111100 (
b101111100 3
b101111100 }
b101111100 *"
1!
#2120000
0!
